<kml xmlns:gx="http://www.google.com/kml/ext/2.2" xmlns:atom="http://www.w3.org/2005/Atom" xmlns="http://www.opengis.net/kml/2.2">
  <Document>
    <Folder>
      <name>Name</name>
      <Placemark>
        <name></name>
        <Style>
          <LineStyle>
            <color>ff00ffff</color>
            <width>3</width>
          </LineStyle>
        </Style>
        <LineString>
          <extrude>0</extrude>
          <altitudeMode>absolute</altitudeMode>
          <coordinates>
-76.617807,39.379001,195.98538
-76.617807,39.378001,196.4927
</coordinates>
        </LineString>
      </Placemark>
      <Placemark>
        <name></name>
        <Style>
          <LineStyle>
            <color>ff00ffff</color>
            <width>3</width>
          </LineStyle>
        </Style>
        <LineString>
          <extrude>0</extrude>
          <altitudeMode>absolute</altitudeMode>
          <coordinates>
-76.617807,39.378001,196.4927
-76.617807,39.377001,196.1545
</coordinates>
        </LineString>
      </Placemark>
      <Placemark>
        <name></name>
        <Style>
          <LineStyle>
            <color>ff00ffff</color>
            <width>3</width>
          </LineStyle>
        </Style>
        <LineString>
          <extrude>0</extrude>
          <altitudeMode>absolute</altitudeMode>
          <coordinates>
-76.617807,39.377001,196.1545
-76.617807,39.376001,195.98538
</coordinates>
        </LineString>
      </Placemark>
      <Placemark>
        <name></name>
        <Style>
          <LineStyle>
            <color>ff00ffff</color>
            <width>3</width>
          </LineStyle>
        </Style>
        <LineString>
          <extrude>0</extrude>
          <altitudeMode>absolute</altitudeMode>
          <coordinates>
-76.617807,39.376001,195.98538
-76.617807,39.375001,196.83356
</coordinates>
        </LineString>
      </Placemark>
      <Placemark>
        <name></name>
        <Style>
          <LineStyle>
            <color>ff00ffff</color>
            <width>3</width>
          </LineStyle>
        </Style>
        <LineString>
          <extrude>0</extrude>
          <altitudeMode>absolute</altitudeMode>
          <coordinates>
-76.617807,39.375001,196.83356
-76.614807,39.374001,197.34087
</coordinates>
        </LineString>
      </Placemark>
      <Placemark>
        <name></name>
        <Style>
          <LineStyle>
            <color>ff00ffff</color>
            <width>3</width>
          </LineStyle>
        </Style>
        <LineString>
          <extrude>0</extrude>
          <altitudeMode>absolute</altitudeMode>
          <coordinates>
-76.614807,39.374001,197.34087
-76.612807,39.373001,196.83356
</coordinates>
        </LineString>
      </Placemark>
      <Placemark>
        <name></name>
        <Style>
          <LineStyle>
            <color>ff00ffff</color>
            <width>3</width>
          </LineStyle>
        </Style>
        <LineString>
          <extrude>0</extrude>
          <altitudeMode>absolute</altitudeMode>
          <coordinates>
-76.612807,39.373001,196.83356
-76.617807,39.379201,196.3236
</coordinates>
        </LineString>
      </Placemark>
      <Placemark>
        <name></name>
        <Style>
          <LineStyle>
            <color>ff00ffff</color>
            <width>3</width>
          </LineStyle>
        </Style>
        <LineString>
          <extrude>0</extrude>
          <altitudeMode>absolute</altitudeMode>
          <coordinates>
-76.617807,39.379201,196.3236
-76.617107,39.379101,196.3236
</coordinates>
        </LineString>
      </Placemark>
      <Placemark>
        <name></name>
        <Style>
          <LineStyle>
            <color>ff00ffff</color>
            <width>3</width>
          </LineStyle>
        </Style>
        <LineString>
          <extrude>0</extrude>
          <altitudeMode>absolute</altitudeMode>
          <coordinates>
-76.617107,39.379101,196.3236
-76.617807,39.379001,196.3236
</coordinates>
        </LineString>
      </Placemark>
      <Placemark>
        <name></name>
        <Style>
          <LineStyle>
            <color>ff00ffff</color>
            <width>3</width>
          </LineStyle>
        </Style>
        <LineString>
          <extrude>0</extrude>
          <altitudeMode>absolute</altitudeMode>
          <coordinates>
-76.617807,39.379001,196.3236
-76.617807,39.37001,195.64453
</coordinates>
        </LineString>
      </Placemark>
      <Placemark>
        <name></name>
        <Style>
          <LineStyle>
            <color>ff00ffff</color>
            <width>3</width>
          </LineStyle>
        </Style>
        <LineString>
          <extrude>0</extrude>
          <altitudeMode>absolute</altitudeMode>
          <coordinates>
-76.617807,39.37001,195.64453
-76.617807,39.379001,196.83356
</coordinates>
        </LineString>
      </Placemark>
      <Placemark>
        <name></name>
        <Style>
          <LineStyle>
            <color>ff00ffff</color>
            <width>3</width>
          </LineStyle>
        </Style>
        <LineString>
          <extrude>0</extrude>
          <altitudeMode>absolute</altitudeMode>
          <coordinates>
-76.617807,39.379001,196.83356
-76.617807,39.379,195.98538
</coordinates>
        </LineString>
      </Placemark>
      <Placemark>
        <name></name>
        <Style>
          <LineStyle>
            <color>ff00ffff</color>
            <width>3</width>
          </LineStyle>
        </Style>
        <LineString>
          <extrude>0</extrude>
          <altitudeMode>absolute</altitudeMode>
          <coordinates>
-76.617807,39.379,195.98538
-76.617807,39.379,196.66444
</coordinates>
        </LineString>
      </Placemark>
      <Placemark>
        <name></name>
        <Style>
          <LineStyle>
            <color>ff00ffff</color>
            <width>3</width>
          </LineStyle>
        </Style>
        <LineString>
          <extrude>0</extrude>
          <altitudeMode>absolute</altitudeMode>
          <coordinates>
-76.617807,39.379,196.66444
-76.617807,39.379,196.1545
</coordinates>
        </LineString>
      </Placemark>
      <Placemark>
        <name></name>
        <Style>
          <LineStyle>
            <color>ff00ffff</color>
            <width>3</width>
          </LineStyle>
        </Style>
        <LineString>
          <extrude>0</extrude>
          <altitudeMode>absolute</altitudeMode>
          <coordinates>
-76.617807,39.379,196.1545
-76.617807,39.379,196.4927
</coordinates>
        </LineString>
      </Placemark>
      <Placemark>
        <name></name>
        <Style>
          <LineStyle>
            <color>ff00ffff</color>
            <width>3</width>
          </LineStyle>
        </Style>
        <LineString>
          <extrude>0</extrude>
          <altitudeMode>absolute</altitudeMode>
          <coordinates>
-76.617807,39.379,196.4927
-76.617807,39.379,195.64453
</coordinates>
        </LineString>
      </Placemark>
      <Placemark>
        <name></name>
        <Style>
          <LineStyle>
            <color>ff00ffff</color>
            <width>3</width>
          </LineStyle>
        </Style>
        <LineString>
          <extrude>0</extrude>
          <altitudeMode>absolute</altitudeMode>
          <coordinates>
-76.617807,39.379,195.64453
-76.617807,39.379,196.66444
</coordinates>
        </LineString>
      </Placemark>
      <Placemark>
        <name></name>
        <Style>
          <LineStyle>
            <color>ff00ffff</color>
            <width>3</width>
          </LineStyle>
        </Style>
        <LineString>
          <extrude>0</extrude>
          <altitudeMode>absolute</altitudeMode>
          <coordinates>
-76.617807,39.379,196.66444
-76.617807,39.379,195.64453
</coordinates>
        </LineString>
      </Placemark>
      <Placemark>
        <name></name>
        <Style>
          <LineStyle>
            <color>ff00ffff</color>
            <width>3</width>
          </LineStyle>
        </Style>
        <LineString>
          <extrude>0</extrude>
          <altitudeMode>absolute</altitudeMode>
          <coordinates>
-76.617807,39.379,195.64453
-76.617807,39.379,196.3236
</coordinates>
        </LineString>
      </Placemark>
      <Placemark>
        <name></name>
        <Style>
          <LineStyle>
            <color>ff00ffff</color>
            <width>3</width>
          </LineStyle>
        </Style>
        <LineString>
          <extrude>0</extrude>
          <altitudeMode>absolute</altitudeMode>
          <coordinates>
-76.617807,39.379,196.3236
-76.617807,39.379,196.1545
</coordinates>
        </LineString>
      </Placemark>
      <Placemark>
        <name></name>
        <Style>
          <LineStyle>
            <color>ff00ffff</color>
            <width>3</width>
          </LineStyle>
        </Style>
        <LineString>
          <extrude>0</extrude>
          <altitudeMode>absolute</altitudeMode>
          <coordinates>
-76.617807,39.379,196.1545
-76.617807,39.379,197.00266
</coordinates>
        </LineString>
      </Placemark>
    </Folder>
  </Document>
</kml>

